Rによる日本語テキスト処理2
…
## ここは文章ごとに形態素解析にかけて、その結果をまとめる処理
funs <- function(x, y){
     x <- unlist(RMeCabC(x, 1))
   data_frame(TERM = x, N = y)
}

x <- map2_dfr(sentence$S, sentence$N,
 ~ funs(..1, ..2)
)
# 単語と出現した文章番号がペアになったデータが生成される
x

## # A tibble: 3,219 x 2
##    TERM         N
##    <chr>    <int>
##  1 二           1
##  2 人           1
##  3 の           1
##  4 若い         1
##  5 紳士         1
##  6 が           1
##  7 、           1
##  8 すっかり     1
##  9 イギリス     1
## 10 の           1
## # … with 3,209 more rows
…
