Rにおける効率的な分析
…
# A tibble: 3 x 2
  country     data             
  <fct>       <list>           
1 China       <tibble [12 × 5]>
2 Japan       <tibble [12 × 5]>
3 Korea, Rep. <tibble [12 × 5]>

仕組み

dataの中身

gap %>% nest(-country) %>% 
              select(data) %>% unnest() 

# A tibble: 36 x 5
   continent  year lifeExp        pop gdpPercap
   <fct>     <int>   <dbl>      <int>     <dbl>
 1 Asia       1952    44    556263527      400.
 2 Asia       1957    50.5  637408000      576.
 3 Asia       1962    44.5  665770000      488.
 4 Asia       1967    58.4  754550000      613.
 5 Asia       1972    63.1  862030000      677.
 6 Asia       1977    64.0  943455000      741.
 7 Asia       1982    65.5 1000281000      962.
 8 Asia       1987    67.3 1084035000     1379.
 9 Asia       1992    68.7 1164970000     1656.
10 Asia       1997    70.4 1230075000     2289.
# … with 26 more rows
…
augment

モデルに基づく観測値の予測

gap_lm %>% unnest(augmented,.drop = TRUE)

# A tibble: 36 x 10
   country lifeExp gdpPercap .fitted .se.fit .resid   .hat .sigma .cooksd
   <fct>     <dbl>     <dbl>   <dbl>   <dbl>  <dbl>  <dbl>  <dbl>   <dbl>
 1 China      44        400.    56.1    2.88 -12.1  0.141    6.83 0.236  
 2 China      50.5      576.    57.0    2.70  -6.46 0.124    7.76 0.0570 
 3 China      44.5      488.    56.5    2.79 -12.0  0.132    6.85 0.215  
 4 China      58.4      613.    57.2    2.66   1.18 0.120    8.08 0.00184
 5 China      63.1      677.    57.5    2.61   5.58 0.115    7.85 0.0389 
 6 China      64.0      741.    57.9    2.55   6.09 0.110    7.80 0.0439 
 7 China      65.5      962.    59.0    2.39   6.49 0.0967   7.77 0.0424 
 8 China      67.3     1379.    61.2    2.22   6.06 0.0839   7.81 0.0312 
 9 China      68.7     1656.    62.7    2.23   6.03 0.0847   7.82 0.0312 
10 China      70.4     2289.    66.0    2.60   4.45 0.114    7.94 0.0245 
# … with 26 more rows, and 1 more variable: .std.resid <dbl>
…
[1] "iPhone6でかすぎ"

予測モデル

メッセージに出現する単語から、内容がポジティブかネガティブかを二値判定

肯定的か否定的 ~ Word1 + Word2 + … + Word9999 + Word10000

データの用意

status_idごとに出現単語とその頻度

iPhone_df %>% arrange(TERM, status_id) 

# A tibble: 18,247 x 3
   status_id          TERM             n
   <chr>              <chr>        <int>
 1 703580075891884032 あっという間     1
 2 697419801073831936 いい加減         1
 3 551308290882154498 お陰             1
 4 631470217957224449 お陰             1
 5 704299116335992832 お家             1
 6 569511238411030529 お願い           1
 7 579920270888083456 お願い           1
 8 691241852272422912 お願い           1
 9 694381603263393792 お願い           1
10 696548443322318848 お願い           1
# … with 18,237 more rows
…
# Y ~ .（説明変数全体）
iPhone_glm <- glm(
 Y ~ ., 
 data= iPhone,  
 family = "binomial")

ロジスティック回帰

単語それぞれが独立した説明変数になる

library(broom)
iPhone_glm %>% tidy()

# A tibble: 1,303 x 5
   term        estimate  std.error statistic  p.value
   <chr>          <dbl>      <dbl>     <dbl>    <dbl>
 1 (Intercept)   -0.677     0.0574 -11.8     4.25e-32
 2 janetter     -19.2   10754.      -0.00179 9.99e- 1
 3 jojo          18.4   10754.       0.00171 9.99e- 1
 4 Kindle        17.4    1778.       0.00981 9.92e- 1
 5 KREVA        -17.1   10754.      -0.00159 9.99e- 1
 6 line         -19.2   10754.      -0.00179 9.99e- 1
 7 LIVE         -24.9    5367.      -0.00465 9.96e- 1
 8 ll           -19.7    7334.      -0.00268 9.98e- 1
 9 lP           -34.9   12567.      -0.00278 9.98e- 1
10 m             -9.67   1953.      -0.00495 9.96e- 1
# … with 1,293 more rows
…
lasso_tidy <- glmnet_model_tidy %>% 
      fit(Y ~ ., data = train_juiced)

predict

ペナルティごとに予測: multi_predict()

preds<-test_baked%>% 
 select(Y) %>% 
 bind_cols(fitted= 
     multi_predict(
    lasso_tidy, 
    test_baked))

# A tibble: 2,671 x 2
   Y     .pred           
   <fct> <list>          
 1 FALSE <tibble [6 × 2]>
 2 TRUE  <tibble [6 × 2]>
 3 FALSE <tibble [6 × 2]>
 4 TRUE  <tibble [6 × 2]>
 5 TRUE  <tibble [6 × 2]>
 6 TRUE  <tibble [6 × 2]>
 7 TRUE  <tibble [6 × 2]>
 8 TRUE  <tibble [6 × 2]>
 9 TRUE  <tibble [6 × 2]>
10 TRUE  <tibble [6 × 2]>
# … with 2,661 more rows
…
予測値の展開

unnest() を使って .$pred 列を展開

preds_f <- preds %>% 
 mutate(.pred =map(
  .pred,bind_rows))%>% 
  unnest()

# A tibble: 16,026 x 3
   Y     penalty .pred
   <fct>   <dbl> <fct>
 1 FALSE 0.00001 FALSE
 2 FALSE 0.0001  FALSE
 3 FALSE 0.001   FALSE
 4 FALSE 0.01    FALSE
 5 FALSE 0.1     FALSE
 6 FALSE 1       FALSE
 7 TRUE  0.00001 FALSE
 8 TRUE  0.0001  FALSE
 9 TRUE  0.001   FALSE
10 TRUE  0.01    FALSE
# … with 16,016 more rows
…
